…
``` r
summary<-homicide_CityState%>%
  group_by(city_state)%>%
  summarize(
    total_cases=n(),
    solved=sum(disposition=="Closed by arrest"),
    unsolved=sum(disposition!="Closed by arrest")
  )%>%
  filter(city_state!="Tulsa,AL")
summary
```

    ## # A tibble: 50 × 4
    ##    city_state     total_cases solved unsolved
    ##    <chr>                <int>  <int>    <int>
    ##  1 Albuquerque,NM         378    232      146
    ##  2 Atlanta,GA             973    600      373
    ##  3 Baltimore,MD          2827   1002     1825
    ##  4 Baton Rouge,LA         424    228      196
    ##  5 Birmingham,AL          800    453      347
    ##  6 Boston,MA              614    304      310
    ##  7 Buffalo,NY             521    202      319
    ##  8 Charlotte,NC           687    481      206
    ##  9 Chicago,IL            5535   1462     4073
    ## 10 Cincinnati,OH          694    385      309
    ## # … with 40 more rows
…
``` r
result=
  summary%>%
  mutate(
    result=map2(unsolved,total_cases,prop.test),
    output_result=map(result, broom::tidy)
  )%>%
  unnest(output_result)%>%
  select(city_state,estimate,conf.low,conf.high)

result
```

    ## # A tibble: 50 × 4
    ##    city_state     estimate conf.low conf.high
    ##    <chr>             <dbl>    <dbl>     <dbl>
    ##  1 Albuquerque,NM    0.386    0.337     0.438
    ##  2 Atlanta,GA        0.383    0.353     0.415
    ##  3 Baltimore,MD      0.646    0.628     0.663
    ##  4 Baton Rouge,LA    0.462    0.414     0.511
    ##  5 Birmingham,AL     0.434    0.399     0.469
    ##  6 Boston,MA         0.505    0.465     0.545
    ##  7 Buffalo,NY        0.612    0.569     0.654
    ##  8 Charlotte,NC      0.300    0.266     0.336
    ##  9 Chicago,IL        0.736    0.724     0.747
    ## 10 Cincinnati,OH     0.445    0.408     0.483
    ## # … with 40 more rows
…
